%YAML 1.1
%TAG !u! tag:unity3d.com,2011:
--- !u!1045 &1
EditorBuildSettings:
  m_ObjectHideFlags: 0
  serializedVersion: 2
  m_Scenes:
  - enabled: 1
    path: Assets/Scenes/SceneMainMenu.unity
    guid: dff0414fca3fb524d8c430f58e7e14a2
  - enabled: 1
    path: Assets/Scenes/Game.unity
    guid: f4f280ddd1fc24946ba7033475ed992d
  - enabled: 1
    path: Assets/Scenes/SceneOptions.unity
    guid: 9285a9050a55d8345879096c78bfbcac
  - enabled: 1
    path: Assets/Scenes/SceneGameplay.unity
    guid: a8c2902c796652742bcdcfb601ba503b
  m_configObjects: {}
